\relax 
\providecommand\hyper@newdestlabel[2]{}
\providecommand\HyperFirstAtBeginDocument{\AtBeginDocument}
\HyperFirstAtBeginDocument{\ifx\hyper@anchor\@undefined
\global\let\oldcontentsline\contentsline
\gdef\contentsline#1#2#3#4{\oldcontentsline{#1}{#2}{#3}}
\global\let\oldnewlabel\newlabel
\gdef\newlabel#1#2{\newlabelxx{#1}#2}
\gdef\newlabelxx#1#2#3#4#5#6{\oldnewlabel{#1}{{#2}{#3}}}
\AtEndDocument{\ifx\hyper@anchor\@undefined
\let\contentsline\oldcontentsline
\let\newlabel\oldnewlabel
\fi}
\fi}
\global\let\hyper@last\relax 
\gdef\HyperFirstAtBeginDocument#1{#1}
\providecommand\HyField@AuxAddToFields[1]{}
\providecommand\HyField@AuxAddToCoFields[2]{}
\@writefile{toc}{\contentsline {section}{Spis Treści}{3}{section*.1}\protected@file@percent }
\newlabel{spis-treux15bci}{{}{3}{Spis Treści}{section*.1}{}}
\gdef \LT@i {\LT@entry 
    {1}{207.41333pt}\LT@entry 
    {1}{117.28171pt}\LT@entry 
    {1}{157.06pt}}
\@writefile{toc}{\contentsline {section}{1. Istota streamowania danych }{4}{section*.2}\protected@file@percent }
\newlabel{istota-streamowania-danych}{{}{4}{\texorpdfstring {1. Istota streamowania danych }{1. Istota streamowania danych }}{section*.2}{}}
\@writefile{toc}{\contentsline {subsection}{1.1 Porównanie przetwarzania wsadowego ze strumieniowym }{4}{section*.3}\protected@file@percent }
\newlabel{poruxf3wnanie-przetwarzania-wsadowego-ze-strumieniowym}{{}{4}{\texorpdfstring {1.1 Porównanie przetwarzania wsadowego ze strumieniowym }{1.1 Porównanie przetwarzania wsadowego ze strumieniowym }}{section*.3}{}}
\@writefile{toc}{\contentsline {subsection}{1.2 Charakterystyka przetwarzania strumieniowego }{4}{section*.4}\protected@file@percent }
\newlabel{charakterystyka-przetwarzania-strumieniowego}{{}{4}{\texorpdfstring {1.2 Charakterystyka przetwarzania strumieniowego }{1.2 Charakterystyka przetwarzania strumieniowego }}{section*.4}{}}
\@writefile{toc}{\contentsline {subsection}{1.3. Okna czasowe }{5}{section*.5}\protected@file@percent }
\newlabel{okna-czasowe}{{}{5}{\texorpdfstring {1.3. Okna czasowe }{1.3. Okna czasowe }}{section*.5}{}}
\@writefile{toc}{\contentsline {subsection}{1.4. Semantyka dostarczania wiadomości }{8}{section*.6}\protected@file@percent }
\newlabel{semantyka-dostarczania-wiadomoux15bci}{{}{8}{\texorpdfstring {1.4. Semantyka dostarczania wiadomości }{1.4. Semantyka dostarczania wiadomości }}{section*.6}{}}
\@writefile{toc}{\contentsline {section}{2. Przegląd narzędzi do streamowania danych }{9}{section*.7}\protected@file@percent }
\newlabel{przeglux105d-narzux119dzi-do-streamowania-danych}{{}{9}{\texorpdfstring {2. Przegląd narzędzi do streamowania danych }{2. Przegląd narzędzi do streamowania danych }}{section*.7}{}}
\@writefile{toc}{\contentsline {subsection}{2.1. Apache Kafka Streams }{9}{section*.8}\protected@file@percent }
\newlabel{apache-kafka-streams}{{}{9}{\texorpdfstring {2.1. Apache Kafka Streams }{2.1. Apache Kafka Streams }}{section*.8}{}}
\@writefile{toc}{\contentsline {subsection}{2.2. Apache Spark Structured Streaming }{9}{section*.9}\protected@file@percent }
\newlabel{apache-spark-structured-streaming}{{}{9}{\texorpdfstring {2.2. Apache Spark Structured Streaming }{2.2. Apache Spark Structured Streaming }}{section*.9}{}}
\@writefile{toc}{\contentsline {subsection}{2.3. Rozwiązania chmurowe }{10}{section*.10}\protected@file@percent }
\newlabel{rozwiux105zania-chmurowe}{{}{10}{\texorpdfstring {2.3. Rozwiązania chmurowe }{2.3. Rozwiązania chmurowe }}{section*.10}{}}
\@writefile{toc}{\contentsline {subsection}{2.4. Mniej popularne }{10}{section*.11}\protected@file@percent }
\newlabel{mniej-popularne}{{}{10}{\texorpdfstring {2.4. Mniej popularne }{2.4. Mniej popularne }}{section*.11}{}}
\@writefile{toc}{\contentsline {subsection}{2.5. Apache Beam }{10}{section*.12}\protected@file@percent }
\newlabel{apache-beam}{{}{10}{\texorpdfstring {2.5. Apache Beam }{2.5. Apache Beam }}{section*.12}{}}
\@writefile{toc}{\contentsline {section}{3. Projekt streamujący dane z Apache Kafka Streams }{12}{section*.13}\protected@file@percent }
\newlabel{projekt-streamujux105cy-dane-z-apache-kafka-streams}{{}{12}{\texorpdfstring {3. Projekt streamujący dane z Apache Kafka Streams }{3. Projekt streamujący dane z Apache Kafka Streams }}{section*.13}{}}
\@writefile{toc}{\contentsline {subsection}{3.1. Stos technologiczny }{12}{section*.14}\protected@file@percent }
\newlabel{stos-technologiczny}{{}{12}{\texorpdfstring {3.1. Stos technologiczny }{3.1. Stos technologiczny }}{section*.14}{}}
\@writefile{toc}{\contentsline {subsection}{3.2. Funkcjonalność }{13}{section*.15}\protected@file@percent }
\newlabel{funkcjonalnoux15bux107}{{}{13}{\texorpdfstring {3.2. Funkcjonalność }{3.2. Funkcjonalność }}{section*.15}{}}
\@writefile{toc}{\contentsline {subsubsection}{Okna czasowe agregacji}{13}{section*.16}\protected@file@percent }
\newlabel{okna-czasowe-agregacji}{{}{13}{Okna czasowe agregacji}{section*.16}{}}
\@writefile{toc}{\contentsline {subsubsection}{Miary agregacji}{13}{section*.17}\protected@file@percent }
\newlabel{miary-agregacji}{{}{13}{Miary agregacji}{section*.17}{}}
\@writefile{toc}{\contentsline {subsubsection}{Wyświetlanie agregacji}{14}{section*.18}\protected@file@percent }
\newlabel{wyux15bwietlanie-agregacji}{{}{14}{Wyświetlanie agregacji}{section*.18}{}}
\@writefile{toc}{\contentsline {subsection}{3.3. Architektura }{15}{section*.19}\protected@file@percent }
\newlabel{architektura}{{}{15}{\texorpdfstring {3.3. Architektura }{3.3. Architektura }}{section*.19}{}}
\@writefile{toc}{\contentsline {subsubsection}{Przepływ}{18}{section*.20}\protected@file@percent }
\newlabel{przepux142yw}{{}{18}{Przepływ}{section*.20}{}}
\@writefile{toc}{\contentsline {subsubsection}{Komponenty}{18}{section*.21}\protected@file@percent }
\newlabel{komponenty}{{}{18}{Komponenty}{section*.21}{}}
\@writefile{toc}{\contentsline {subsubsection}{Tematy Kafki}{19}{section*.22}\protected@file@percent }
\newlabel{tematy-kafki}{{}{19}{Tematy Kafki}{section*.22}{}}
\@writefile{toc}{\contentsline {subsubsection}{Topologia strumieni}{19}{section*.23}\protected@file@percent }
\newlabel{topologia-strumieni}{{}{19}{Topologia strumieni}{section*.23}{}}
\@writefile{toc}{\contentsline {subsection}{3.4. Postać danych }{20}{section*.24}\protected@file@percent }
\newlabel{postaux107-danych}{{}{20}{\texorpdfstring {3.4. Postać danych }{3.4. Postać danych }}{section*.24}{}}
\@writefile{toc}{\contentsline {subsubsection}{Surowe dane przychodzące z \texttt  {cryptowat.ch}}{20}{section*.25}\protected@file@percent }
\newlabel{surowe-dane-przychodzux105ce-z-cryptowat.ch}{{}{20}{\texorpdfstring {Surowe dane przychodzące z \texttt {cryptowat.ch}}{Surowe dane przychodzące z cryptowat.ch}}{section*.25}{}}
\@writefile{toc}{\contentsline {subsubsection}{Dane wychodzące z \texttt  {cstream-ingester-cryptowat}}{21}{section*.26}\protected@file@percent }
\newlabel{dane-wychodzux105ce-z-cstream-ingester-cryptowat}{{}{21}{\texorpdfstring {Dane wychodzące z \texttt {cstream-ingester-cryptowat}}{Dane wychodzące z cstream-ingester-cryptowat}}{section*.26}{}}
\@writefile{toc}{\contentsline {subsubsection}{Dane wychodzące z \texttt  {cstream-ingester}}{22}{section*.27}\protected@file@percent }
\newlabel{dane-wychodzux105ce-z-cstream-ingester}{{}{22}{\texorpdfstring {Dane wychodzące z \texttt {cstream-ingester}}{Dane wychodzące z cstream-ingester}}{section*.27}{}}
\@writefile{toc}{\contentsline {subsubsection}{Dane wychodzące z \texttt  {cstream-aggregation}}{23}{section*.28}\protected@file@percent }
\newlabel{dane-wychodzux105ce-z-cstream-aggregation}{{}{23}{\texorpdfstring {Dane wychodzące z \texttt {cstream-aggregation}}{Dane wychodzące z cstream-aggregation}}{section*.28}{}}
\@writefile{toc}{\contentsline {subsubsection}{Dane wychodzące z \texttt  {cstream-sse-provider}}{25}{section*.29}\protected@file@percent }
\newlabel{dane-wychodzux105ce-z-cstream-sse-provider}{{}{25}{\texorpdfstring {Dane wychodzące z \texttt {cstream-sse-provider}}{Dane wychodzące z cstream-sse-provider}}{section*.29}{}}
\@writefile{toc}{\contentsline {subsection}{3.5. Metryki }{25}{section*.30}\protected@file@percent }
\newlabel{metryki}{{}{25}{\texorpdfstring {3.5. Metryki }{3.5. Metryki }}{section*.30}{}}
\@writefile{toc}{\contentsline {subsubsection}{Przygotowanie do pomiarów}{25}{section*.31}\protected@file@percent }
\newlabel{przygotowanie-do-pomiaruxf3w}{{}{25}{Przygotowanie do pomiarów}{section*.31}{}}
\@writefile{toc}{\contentsline {subsubsection}{Kalibracja}{26}{section*.32}\protected@file@percent }
\newlabel{kalibracja}{{}{26}{Kalibracja}{section*.32}{}}
\@writefile{toc}{\contentsline {subsubsection}{Wyniki pomiarów}{26}{section*.33}\protected@file@percent }
\newlabel{wyniki-pomiaruxf3w}{{}{26}{Wyniki pomiarów}{section*.33}{}}
\@writefile{toc}{\contentsline {subsection}{3.6. Uruchomienie }{31}{section*.34}\protected@file@percent }
\newlabel{uruchomienie}{{}{31}{\texorpdfstring {3.6. Uruchomienie }{3.6. Uruchomienie }}{section*.34}{}}
\@writefile{toc}{\contentsline {section}{Podsumowanie i dalsze prace}{33}{section*.35}\protected@file@percent }
\newlabel{podsumowanie-i-dalsze-prace}{{}{33}{Podsumowanie i dalsze prace}{section*.35}{}}
\@writefile{toc}{\contentsline {section}{Repozytorium kodu}{34}{section*.36}\protected@file@percent }
\newlabel{repozytorium-kodu}{{}{34}{Repozytorium kodu}{section*.36}{}}
\@writefile{toc}{\contentsline {section}{Bibliografia}{35}{section*.37}\protected@file@percent }
\newlabel{bibliografia}{{}{35}{Bibliografia}{section*.37}{}}
\@writefile{toc}{\contentsline {subsubsection}{Literatura}{35}{section*.38}\protected@file@percent }
\newlabel{literatura}{{}{35}{Literatura}{section*.38}{}}
\@writefile{toc}{\contentsline {subsubsection}{Źródła internetowe}{35}{section*.39}\protected@file@percent }
\newlabel{ux17aruxf3dux142a-internetowe}{{}{35}{Źródła internetowe}{section*.39}{}}
\@writefile{toc}{\contentsline {subsubsection}{Prezentacje video}{37}{section*.40}\protected@file@percent }
\newlabel{prezentacje-video}{{}{37}{Prezentacje video}{section*.40}{}}
\gdef \@abspage@last{37}
